^D:\VSPROJECTS\CONNECTEDCOMPONENT\CONNECTEDCOMPONENT\STDAFX.CPP
/c /IC:\opencv\build\include /IC:\opencv\build\include\opencv /IC:\opencv\build\include\opencv2 /ZI /nologo /W3 /WX- /sdl /Od /Oy- /D WIN32 /D _DEBUG /D _CONSOLE /D _UNICODE /D UNICODE /Gm /EHsc /RTC1 /MDd /GS /fp:precise /Zc:wchar_t /Zc:forScope /Yc"stdafx.h" /Fp"DEBUG\CONNECTEDCOMPONENT.PCH" /Fo"DEBUG\\" /Fd"DEBUG\VC110.PDB" /Gd /TP /analyze- D:\VSPROJECTS\CONNECTEDCOMPONENT\CONNECTEDCOMPONENT\STDAFX.CPP
^D:\VSPROJECTS\CONNECTEDCOMPONENT\CONNECTEDCOMPONENT\CONNECTEDCOMPONENT.CPP
/c /IC:\opencv\build\include /IC:\opencv\build\include\opencv /IC:\opencv\build\include\opencv2 /ZI /nologo /W3 /WX- /sdl /Od /Oy- /D WIN32 /D _DEBUG /D _CONSOLE /D _UNICODE /D UNICODE /Gm /EHsc /RTC1 /MDd /GS /fp:precise /Zc:wchar_t /Zc:forScope /Fo"DEBUG\\" /Fd"DEBUG\VC110.PDB" /Gd /TP /analyze- D:\VSPROJECTS\CONNECTEDCOMPONENT\CONNECTEDCOMPONENT\CONNECTEDCOMPONENT.CPP
^D:\VSPROJECTS\COMPUTERVISION\CONNECTEDCOMPONENT\CONNECTEDCOMPONENT\STDAFX.CPP
/c /IC:\opencv\build\include /IC:\opencv\build\include\opencv /IC:\opencv\build\include\opencv2 /ZI /nologo /W3 /WX- /sdl /Od /Oy- /D WIN32 /D _DEBUG /D _CONSOLE /D _UNICODE /D UNICODE /Gm /EHsc /RTC1 /MDd /GS /fp:precise /Zc:wchar_t /Zc:forScope /Yc"stdafx.h" /Fp"DEBUG\CONNECTEDCOMPONENT.PCH" /Fo"DEBUG\\" /Fd"DEBUG\VC110.PDB" /Gd /TP /analyze- D:\VSPROJECTS\COMPUTERVISION\CONNECTEDCOMPONENT\CONNECTEDCOMPONENT\STDAFX.CPP
^D:\VSPROJECTS\COMPUTERVISION\CONNECTEDCOMPONENT\CONNECTEDCOMPONENT\CONNECTEDCOMPONENT.CPP
/c /IC:\opencv\build\include /IC:\opencv\build\include\opencv /IC:\opencv\build\include\opencv2 /ZI /nologo /W3 /WX- /sdl /Od /Oy- /D WIN32 /D _DEBUG /D _CONSOLE /D _UNICODE /D UNICODE /Gm /EHsc /RTC1 /MDd /GS /fp:precise /Zc:wchar_t /Zc:forScope /Fo"DEBUG\\" /Fd"DEBUG\VC110.PDB" /Gd /TP /analyze- D:\VSPROJECTS\COMPUTERVISION\CONNECTEDCOMPONENT\CONNECTEDCOMPONENT\CONNECTEDCOMPONENT.CPP
^D:\VSPROJECTS\WHITEBOARD-CLEANUP\CONNECTEDCOMPONENT\CONNECTEDCOMPONENT\STDAFX.CPP
/c /IC:\opencv\build\include /IC:\opencv\build\include\opencv /IC:\opencv\build\include\opencv2 /ZI /nologo /W3 /WX- /sdl /Od /Oy- /D WIN32 /D _DEBUG /D _CONSOLE /D _UNICODE /D UNICODE /Gm /EHsc /RTC1 /MDd /GS /fp:precise /Zc:wchar_t /Zc:forScope /Yc"stdafx.h" /Fp"DEBUG\CONNECTEDCOMPONENT.PCH" /Fo"DEBUG\\" /Fd"DEBUG\VC110.PDB" /Gd /TP /analyze- D:\VSPROJECTS\WHITEBOARD-CLEANUP\CONNECTEDCOMPONENT\CONNECTEDCOMPONENT\STDAFX.CPP
^D:\VSPROJECTS\WHITEBOARD-CLEANUP\CONNECTEDCOMPONENT\CONNECTEDCOMPONENT\CONNECTEDCOMPONENT.CPP
/c /IC:\opencv\build\include /IC:\opencv\build\include\opencv /IC:\opencv\build\include\opencv2 /ZI /nologo /W3 /WX- /sdl /Od /Oy- /D WIN32 /D _DEBUG /D _CONSOLE /D _UNICODE /D UNICODE /Gm /EHsc /RTC1 /MDd /GS /fp:precise /Zc:wchar_t /Zc:forScope /Fo"DEBUG\\" /Fd"DEBUG\VC110.PDB" /Gd /TP /analyze- D:\VSPROJECTS\WHITEBOARD-CLEANUP\CONNECTEDCOMPONENT\CONNECTEDCOMPONENT\CONNECTEDCOMPONENT.CPP
