^D:\VSPROJECTS\COMPUTERVISION\CONNECTEDCOMPONENT\CONNECTEDCOMPONENT\DEBUG\CONNECTEDCOMPONENT.OBJ|D:\VSPROJECTS\COMPUTERVISION\CONNECTEDCOMPONENT\CONNECTEDCOMPONENT\DEBUG\STDAFX.OBJ
D:\VSPROJECTS\COMPUTERVISION\CONNECTEDCOMPONENT\DEBUG\CONNECTEDCOMPONENT.ILK
D:\VSPROJECTS\COMPUTERVISION\CONNECTEDCOMPONENT\DEBUG\CONNECTEDCOMPONENT.EXE
D:\VSPROJECTS\COMPUTERVISION\CONNECTEDCOMPONENT\DEBUG\CONNECTEDCOMPONENT.PDB
^D:\VSPROJECTS\WHITEBOARD-CLEANUP\CONNECTEDCOMPONENT\CONNECTEDCOMPONENT\DEBUG\CONNECTEDCOMPONENT.OBJ|D:\VSPROJECTS\WHITEBOARD-CLEANUP\CONNECTEDCOMPONENT\CONNECTEDCOMPONENT\DEBUG\STDAFX.OBJ
D:\VSPROJECTS\WHITEBOARD-CLEANUP\CONNECTEDCOMPONENT\DEBUG\CONNECTEDCOMPONENT.ILK
D:\VSPROJECTS\WHITEBOARD-CLEANUP\CONNECTEDCOMPONENT\DEBUG\CONNECTEDCOMPONENT.EXE
D:\VSPROJECTS\WHITEBOARD-CLEANUP\CONNECTEDCOMPONENT\DEBUG\CONNECTEDCOMPONENT.PDB
